<svg width="7" height="4" viewBox="0 0 7 4" fill="none" xmlns="http://www.w3.org/2000/svg">
<path d="M6.17707 1.17688L3.67707 3.67688C3.65385 3.70012 3.62628 3.71856 3.59593 3.73114C3.56558 3.74372 3.53305 3.7502 3.5002 3.7502C3.46734 3.7502 3.43481 3.74372 3.40446 3.73114C3.37411 3.71856 3.34654 3.70012 3.32332 3.67688L0.823322 1.17688C0.788319 1.14191 0.764477 1.09735 0.754815 1.04883C0.745152 1.00031 0.750103 0.950008 0.769041 0.904302C0.787979 0.858597 0.820053 0.819538 0.861201 0.79207C0.90235 0.764602 0.950723 0.749961 1.0002 0.75H6.0002C6.04967 0.749961 6.09804 0.764602 6.13919 0.79207C6.18034 0.819538 6.21241 0.858597 6.23135 0.904302C6.25029 0.950008 6.25524 1.00031 6.24558 1.04883C6.23592 1.09735 6.21208 1.14191 6.17707 1.17688Z" fill="black"/>
</svg>
