<svg width="517" height="392" viewBox="0 0 517 392" fill="none" xmlns="http://www.w3.org/2000/svg">
<path d="M516.024 242.892L516.557 241.979L258.545 93L258.012 93.913L516.024 242.892Z" fill="#EDEDED"/>
<path d="M490.231 257.729L490.763 256.892L232.751 107.913L232.219 108.826L490.231 257.729Z" fill="#EDEDED"/>
<path d="M464.437 272.642L464.97 271.805L206.958 122.826L206.425 123.663L464.437 272.642Z" fill="#EDEDED"/>
<path d="M438.644 287.555L439.176 286.642L181.164 137.663L180.631 138.576L438.644 287.555Z" fill="#EDEDED"/>
<path d="M412.85 302.469L413.382 301.556L155.37 152.577L154.837 153.49L412.85 302.469Z" fill="#EDEDED"/>
<path d="M387.057 317.382L387.589 316.469L129.501 167.49L129.044 168.403L387.057 317.382Z" fill="#EDEDED"/>
<path d="M361.262 332.219L361.719 331.382L103.707 182.403L103.25 183.316L361.262 332.219Z" fill="#EDEDED"/>
<path d="M335.469 347.132L335.926 346.295L77.9136 197.316L77.381 198.153L335.469 347.132Z" fill="#EDEDED"/>
<path d="M309.599 362.045L310.132 361.132L52.1196 212.153L51.587 213.066L309.599 362.045Z" fill="#EDEDED"/>
<path d="M283.806 376.958L284.338 376.045L26.3262 227.066L25.7936 227.979L283.806 376.958Z" fill="#EDEDED"/>
<path d="M258.012 391.871L258.545 390.958L0.532471 241.979L-0.000152588 242.892L258.012 391.871Z" fill="#EDEDED"/>
<path d="M0.532471 242.892L258.545 93.9132L258.012 93.0001L-0.000152588 241.979L0.532471 242.892Z" fill="#EDEDED"/>
<path d="M26.3262 257.729L284.338 108.826L283.806 107.913L25.7936 256.892L26.3262 257.729Z" fill="#EDEDED"/>
<path d="M52.1196 272.642L310.132 123.663L309.599 122.826L51.587 271.805L52.1196 272.642Z" fill="#EDEDED"/>
<path d="M77.9136 287.555L335.926 138.576L335.469 137.663L77.381 286.642L77.9136 287.555Z" fill="#EDEDED"/>
<path d="M103.707 302.469L361.719 153.49L361.262 152.577L103.25 301.556L103.707 302.469Z" fill="#EDEDED"/>
<path d="M129.501 317.382L387.589 168.403L387.057 167.49L129.044 316.469L129.501 317.382Z" fill="#EDEDED"/>
<path d="M155.294 332.219L413.382 183.24L412.85 182.403L154.837 331.382L155.294 332.219Z" fill="#EDEDED"/>
<path d="M181.164 347.132L439.176 198.153L438.644 197.316L180.631 346.295L181.164 347.132Z" fill="#EDEDED"/>
<path d="M206.958 362.045L464.97 213.066L464.437 212.153L206.425 361.132L206.958 362.045Z" fill="#EDEDED"/>
<path d="M232.751 376.958L490.763 227.979L490.231 227.066L232.219 376.045L232.751 376.958Z" fill="#EDEDED"/>
<path d="M258.545 391.871L516.557 242.892L516.024 241.979L258.012 390.958L258.545 391.871Z" fill="#EDEDED"/>
<path d="M264.403 127.392L264.936 126.479L252.153 119.098L251.621 120.011L264.403 127.392Z" fill="#D0D0D0"/>
<path d="M252.153 127.392L264.936 120.011L264.403 119.098L251.621 126.479L252.153 127.392Z" fill="#D0D0D0"/>
<path d="M238.61 142.305L239.143 141.392L226.36 134.011L225.827 134.924L238.61 142.305Z" fill="#D0D0D0"/>
<path d="M226.36 142.305L239.143 134.924L238.61 134.011L225.827 141.392L226.36 142.305Z" fill="#D0D0D0"/>
<path d="M212.816 157.142L213.349 156.305L200.566 148.924L200.033 149.761L212.816 157.142Z" fill="#D0D0D0"/>
<path d="M200.566 157.142L213.349 149.761L212.816 148.924L200.033 156.305L200.566 157.142Z" fill="#D0D0D0"/>
<path d="M187.022 172.055L187.555 171.218L174.772 163.838L174.24 164.674L187.022 172.055Z" fill="#D0D0D0"/>
<path d="M174.772 172.055L187.555 164.674L187.022 163.838L174.24 171.218L174.772 172.055Z" fill="#D0D0D0"/>
<path d="M161.229 186.968L161.761 186.055L148.979 178.675L148.446 179.588L161.229 186.968Z" fill="#D0D0D0"/>
<path d="M148.979 186.968L161.761 179.588L161.229 178.675L148.446 186.055L148.979 186.968Z" fill="#D0D0D0"/>
<path d="M135.435 201.881L135.892 200.968L123.109 193.588L122.653 194.501L135.435 201.881Z" fill="#D0D0D0"/>
<path d="M123.109 201.881L135.892 194.501L135.435 193.588L122.653 200.968L123.109 201.881Z" fill="#D0D0D0"/>
<path d="M109.642 216.794L110.099 215.881L97.316 208.501L96.8594 209.414L109.642 216.794Z" fill="#D0D0D0"/>
<path d="M97.316 216.794L110.099 209.414L109.642 208.501L96.8594 215.881L97.316 216.794Z" fill="#D0D0D0"/>
<path d="M83.7721 231.631L84.3047 230.794L71.522 223.414L70.9894 224.251L83.7721 231.631Z" fill="#D0D0D0"/>
<path d="M71.522 231.631L84.3047 224.251L83.7721 223.414L70.9894 230.794L71.522 231.631Z" fill="#D0D0D0"/>
<path d="M57.9784 246.544L58.511 245.707L45.7283 238.327L45.1957 239.164L57.9784 246.544Z" fill="#D0D0D0"/>
<path d="M45.7283 246.544L58.511 239.164L57.9784 238.327L45.1957 245.707L45.7283 246.544Z" fill="#D0D0D0"/>
<path d="M290.197 142.305L290.729 141.392L277.947 134.011L277.414 134.924L290.197 142.305Z" fill="#D0D0D0"/>
<path d="M277.947 142.305L290.729 134.924L290.197 134.011L277.414 141.392L277.947 142.305Z" fill="#D0D0D0"/>
<path d="M264.403 157.142L264.936 156.305L252.153 148.924L251.621 149.761L264.403 157.142Z" fill="#D0D0D0"/>
<path d="M252.153 157.142L264.936 149.761L264.403 148.924L251.621 156.305L252.153 157.142Z" fill="#D0D0D0"/>
<path d="M238.609 172.055L239.142 171.218L226.359 163.837L225.827 164.674L238.609 172.055Z" fill="#D0D0D0"/>
<path d="M226.359 172.055L239.142 164.674L238.609 163.837L225.827 171.218L226.359 172.055Z" fill="#D0D0D0"/>
<path d="M212.816 186.968L213.349 186.055L200.566 178.674L200.033 179.587L212.816 186.968Z" fill="#D0D0D0"/>
<path d="M200.566 186.968L213.349 179.587L212.816 178.674L200.033 186.055L200.566 186.968Z" fill="#D0D0D0"/>
<path d="M187.022 201.881L187.555 200.968L174.772 193.588L174.24 194.501L187.022 201.881Z" fill="#D0D0D0"/>
<path d="M174.772 201.881L187.555 194.501L187.022 193.588L174.24 200.968L174.772 201.881Z" fill="#D0D0D0"/>
<path d="M161.229 216.794L161.761 215.881L148.979 208.5L148.446 209.414L161.229 216.794Z" fill="#D0D0D0"/>
<path d="M148.979 216.794L161.761 209.414L161.229 208.5L148.446 215.881L148.979 216.794Z" fill="#D0D0D0"/>
<path d="M135.435 231.631L135.892 230.794L123.109 223.414L122.653 224.251L135.435 231.631Z" fill="#D0D0D0"/>
<path d="M123.109 231.631L135.892 224.251L135.435 223.414L122.653 230.794L123.109 231.631Z" fill="#D0D0D0"/>
<path d="M109.642 246.544L110.099 245.707L97.316 238.327L96.8594 239.164L109.642 246.544Z" fill="#D0D0D0"/>
<path d="M97.316 246.544L110.099 239.164L109.642 238.327L96.8594 245.707L97.316 246.544Z" fill="#D0D0D0"/>
<path d="M83.7721 261.457L84.3047 260.544L71.522 253.164L70.9894 254.077L83.7721 261.457Z" fill="#D0D0D0"/>
<path d="M71.522 261.457L84.3047 254.077L83.7721 253.164L70.9894 260.544L71.522 261.457Z" fill="#D0D0D0"/>
<path d="M316.067 157.142L316.523 156.305L303.741 148.924L303.208 149.761L316.067 157.142Z" fill="#D0D0D0"/>
<path d="M303.741 157.142L316.523 149.761L316.067 148.924L303.208 156.305L303.741 157.142Z" fill="#D0D0D0"/>
<path d="M290.197 172.055L290.73 171.218L277.947 163.838L277.415 164.674L290.197 172.055Z" fill="#D0D0D0"/>
<path d="M277.947 172.055L290.73 164.674L290.197 163.838L277.415 171.218L277.947 172.055Z" fill="#D0D0D0"/>
<path d="M264.404 186.968L264.937 186.055L252.154 178.675L251.621 179.588L264.404 186.968Z" fill="#D0D0D0"/>
<path d="M252.154 186.968L264.937 179.588L264.404 178.675L251.621 186.055L252.154 186.968Z" fill="#D0D0D0"/>
<path d="M238.61 201.881L239.143 200.968L226.36 193.588L225.827 194.501L238.61 201.881Z" fill="#D0D0D0"/>
<path d="M226.36 201.881L239.143 194.501L238.61 193.588L225.827 200.968L226.36 201.881Z" fill="#D0D0D0"/>
<path d="M212.816 216.794L213.349 215.881L200.566 208.501L200.034 209.414L212.816 216.794Z" fill="#D0D0D0"/>
<path d="M200.566 216.794L213.349 209.414L212.816 208.501L200.034 215.881L200.566 216.794Z" fill="#D0D0D0"/>
<path d="M187.023 231.631L187.555 230.794L174.773 223.414L174.24 224.251L187.023 231.631Z" fill="#D0D0D0"/>
<path d="M174.773 231.631L187.555 224.251L187.023 223.414L174.24 230.794L174.773 231.631Z" fill="#D0D0D0"/>
<path d="M161.23 246.544L161.762 245.707L148.903 238.327L148.447 239.164L161.23 246.544Z" fill="#D0D0D0"/>
<path d="M148.903 246.544L161.762 239.164L161.23 238.327L148.447 245.707L148.903 246.544Z" fill="#D0D0D0"/>
<path d="M135.436 261.457L135.893 260.544L123.11 253.164L122.653 254.077L135.436 261.457Z" fill="#D0D0D0"/>
<path d="M123.11 261.457L135.893 254.077L135.436 253.164L122.653 260.544L123.11 261.457Z" fill="#D0D0D0"/>
<path d="M109.642 276.371L110.099 275.458L97.3162 268.077L96.8597 268.99L109.642 276.371Z" fill="#D0D0D0"/>
<path d="M97.3162 276.371L110.099 268.99L109.642 268.077L96.8597 275.458L97.3162 276.371Z" fill="#D0D0D0"/>
<path d="M341.861 172.055L342.317 171.218L329.534 163.838L329.078 164.674L341.861 172.055Z" fill="#D0D0D0"/>
<path d="M329.534 172.055L342.317 164.674L341.861 163.838L329.078 171.218L329.534 172.055Z" fill="#D0D0D0"/>
<path d="M315.991 186.968L316.524 186.055L303.741 178.675L303.208 179.588L315.991 186.968Z" fill="#D0D0D0"/>
<path d="M303.741 186.968L316.524 179.588L316.067 178.675L303.208 186.055L303.741 186.968Z" fill="#D0D0D0"/>
<path d="M290.197 201.881L290.73 200.968L277.947 193.588L277.414 194.501L290.197 201.881Z" fill="#D0D0D0"/>
<path d="M277.947 201.881L290.73 194.501L290.197 193.588L277.414 200.968L277.947 201.881Z" fill="#D0D0D0"/>
<path d="M264.404 216.794L264.936 215.881L252.154 208.501L251.621 209.414L264.404 216.794Z" fill="#D0D0D0"/>
<path d="M252.154 216.794L264.936 209.414L264.404 208.501L251.621 215.881L252.154 216.794Z" fill="#D0D0D0"/>
<path d="M238.61 231.631L239.143 230.795L226.36 223.414L225.827 224.251L238.61 231.631Z" fill="#D0D0D0"/>
<path d="M226.36 231.631L239.143 224.251L238.61 223.414L225.827 230.795L226.36 231.631Z" fill="#D0D0D0"/>
<path d="M212.588 247.001L213.577 245.251L200.795 237.871L199.806 239.621L212.588 247.001Z" fill="#F7F7F7"/>
<path d="M200.795 247.001L213.577 239.621L212.588 237.871L199.806 245.251L200.795 247.001Z" fill="#F7F7F7"/>
<path d="M187.023 261.458L187.555 260.545L174.773 253.164L174.24 254.077L187.023 261.458Z" fill="#D0D0D0"/>
<path d="M174.773 261.458L187.555 254.077L187.023 253.164L174.24 260.545L174.773 261.458Z" fill="#D0D0D0"/>
<path d="M161.229 276.371L161.761 275.458L148.903 268.077L148.446 268.99L161.229 276.371Z" fill="#D0D0D0"/>
<path d="M148.903 276.371L161.761 268.99L161.229 268.077L148.446 275.458L148.903 276.371Z" fill="#D0D0D0"/>
<path d="M135.435 291.284L135.892 290.371L123.109 282.99L122.653 283.903L135.435 291.284Z" fill="#D0D0D0"/>
<path d="M123.109 291.284L135.892 283.903L135.435 282.99L122.653 290.371L123.109 291.284Z" fill="#D0D0D0"/>
<path d="M367.654 186.968L368.111 186.055L355.328 178.675L354.872 179.588L367.654 186.968Z" fill="#D0D0D0"/>
<path d="M355.328 186.968L368.111 179.588L367.654 178.675L354.872 186.055L355.328 186.968Z" fill="#D0D0D0"/>
<path d="M341.861 201.881L342.317 200.968L329.534 193.588L329.078 194.501L341.861 201.881Z" fill="#D0D0D0"/>
<path d="M329.534 201.881L342.317 194.501L341.861 193.588L329.078 200.968L329.534 201.881Z" fill="#D0D0D0"/>
<path d="M315.991 216.794L316.523 215.881L303.741 208.501L303.208 209.414L315.991 216.794Z" fill="#D0D0D0"/>
<path d="M303.741 216.794L316.523 209.414L315.991 208.501L303.208 215.881L303.741 216.794Z" fill="#D0D0D0"/>
<path d="M290.197 231.631L290.73 230.795L277.947 223.414L277.415 224.251L290.197 231.631Z" fill="#D0D0D0"/>
<path d="M277.947 231.631L290.73 224.251L290.197 223.414L277.415 230.795L277.947 231.631Z" fill="#D0D0D0"/>
<path d="M264.404 246.545L264.937 245.632L252.154 238.251L251.621 239.164L264.404 246.545Z" fill="#D0D0D0"/>
<path d="M252.154 246.545L264.937 239.164L264.404 238.251L251.621 245.632L252.154 246.545Z" fill="#D0D0D0"/>
<path d="M238.61 261.458L239.143 260.545L226.36 253.164L225.828 254.077L238.61 261.458Z" fill="#D0D0D0"/>
<path d="M226.36 261.458L239.143 254.077L238.61 253.164L225.828 260.545L226.36 261.458Z" fill="#D0D0D0"/>
<path d="M212.817 276.371L213.349 275.458L200.567 268.077L200.034 268.99L212.817 276.371Z" fill="#D0D0D0"/>
<path d="M200.567 276.371L213.349 268.99L212.817 268.077L200.034 275.458L200.567 276.371Z" fill="#D0D0D0"/>
<path d="M187.023 291.284L187.556 290.371L174.773 282.99L174.24 283.903L187.023 291.284Z" fill="#D0D0D0"/>
<path d="M174.773 291.284L187.556 283.903L187.023 282.99L174.24 290.371L174.773 291.284Z" fill="#D0D0D0"/>
<path d="M161.229 306.121L161.762 305.284L148.903 297.903L148.446 298.74L161.229 306.121Z" fill="#D0D0D0"/>
<path d="M148.903 306.121L161.762 298.74L161.229 297.903L148.446 305.284L148.903 306.121Z" fill="#D0D0D0"/>
<path d="M393.447 201.881L393.98 200.968L381.197 193.588L380.665 194.501L393.447 201.881Z" fill="#D0D0D0"/>
<path d="M381.197 201.881L393.98 194.501L393.447 193.588L380.665 200.968L381.197 201.881Z" fill="#D0D0D0"/>
<path d="M367.654 216.794L368.111 215.881L355.328 208.501L354.871 209.414L367.654 216.794Z" fill="#D0D0D0"/>
<path d="M355.328 216.794L368.111 209.414L367.654 208.501L354.871 215.881L355.328 216.794Z" fill="#D0D0D0"/>
<path d="M341.86 231.631L342.317 230.794L329.534 223.414L329.077 224.251L341.86 231.631Z" fill="#D0D0D0"/>
<path d="M329.534 231.631L342.317 224.251L341.86 223.414L329.077 230.794L329.534 231.631Z" fill="#D0D0D0"/>
<path d="M315.762 247.001L316.827 245.251L304.045 237.87L302.979 239.62L315.762 247.001Z" fill="#F7F7F7"/>
<path d="M304.045 247.001L316.827 239.62L315.762 237.87L302.979 245.251L304.045 247.001Z" fill="#F7F7F7"/>
<path d="M290.197 261.457L290.73 260.544L277.947 253.164L277.414 254.077L290.197 261.457Z" fill="#D0D0D0"/>
<path d="M277.947 261.457L290.73 254.077L290.197 253.164L277.414 260.544L277.947 261.457Z" fill="#D0D0D0"/>
<path d="M264.403 276.371L264.936 275.458L252.153 268.077L251.621 268.99L264.403 276.371Z" fill="#D0D0D0"/>
<path d="M252.153 276.371L264.936 268.99L264.403 268.077L251.621 275.458L252.153 276.371Z" fill="#D0D0D0"/>
<path d="M238.61 291.284L239.143 290.371L226.36 282.99L225.827 283.903L238.61 291.284Z" fill="#D0D0D0"/>
<path d="M226.36 291.284L239.143 283.903L238.61 282.99L225.827 290.371L226.36 291.284Z" fill="#D0D0D0"/>
<path d="M212.588 306.577L213.577 304.827L200.795 297.447L199.806 299.197L212.588 306.577Z" fill="#F7F7F7"/>
<path d="M200.795 306.577L213.577 299.197L212.588 297.447L199.806 304.827L200.795 306.577Z" fill="#F7F7F7"/>
<path d="M187.022 321.034L187.555 320.121L174.772 312.74L174.24 313.653L187.022 321.034Z" fill="#D0D0D0"/>
<path d="M174.772 321.034L187.555 313.653L187.022 312.74L174.24 320.121L174.772 321.034Z" fill="#D0D0D0"/>
<path d="M419.241 216.794L419.774 215.881L406.991 208.501L406.459 209.414L419.241 216.794Z" fill="#D0D0D0"/>
<path d="M406.991 216.794L419.774 209.414L419.241 208.501L406.459 215.881L406.991 216.794Z" fill="#D0D0D0"/>
<path d="M393.448 231.631L393.98 230.794L381.198 223.414L380.665 224.251L393.448 231.631Z" fill="#D0D0D0"/>
<path d="M381.198 231.631L393.98 224.251L393.448 223.414L380.665 230.794L381.198 231.631Z" fill="#D0D0D0"/>
<path d="M367.654 246.544L368.111 245.631L355.328 238.251L354.872 239.164L367.654 246.544Z" fill="#D0D0D0"/>
<path d="M355.328 246.544L368.111 239.164L367.654 238.251L354.872 245.631L355.328 246.544Z" fill="#D0D0D0"/>
<path d="M341.86 261.457L342.317 260.544L329.534 253.164L329.078 254.077L341.86 261.457Z" fill="#D0D0D0"/>
<path d="M329.534 261.457L342.317 254.077L341.86 253.164L329.078 260.544L329.534 261.457Z" fill="#D0D0D0"/>
<path d="M315.991 276.371L316.524 275.458L303.741 268.077L303.208 268.99L315.991 276.371Z" fill="#D0D0D0"/>
<path d="M303.741 276.371L316.524 268.99L315.991 268.077L303.208 275.458L303.741 276.371Z" fill="#D0D0D0"/>
<path d="M290.197 291.284L290.73 290.371L277.947 282.99L277.415 283.903L290.197 291.284Z" fill="#D0D0D0"/>
<path d="M277.947 291.284L290.73 283.903L290.197 282.99L277.415 290.371L277.947 291.284Z" fill="#D0D0D0"/>
<path d="M264.404 306.121L264.937 305.284L252.154 297.904L251.621 298.741L264.404 306.121Z" fill="#D0D0D0"/>
<path d="M252.154 306.121L264.937 298.741L264.404 297.904L251.621 305.284L252.154 306.121Z" fill="#D0D0D0"/>
<path d="M238.61 321.034L239.143 320.121L226.36 312.74L225.828 313.653L238.61 321.034Z" fill="#D0D0D0"/>
<path d="M226.36 321.034L239.143 313.653L238.61 312.74L225.828 320.121L226.36 321.034Z" fill="#D0D0D0"/>
<path d="M212.816 335.947L213.349 335.034L200.566 327.653L200.034 328.566L212.816 335.947Z" fill="#D0D0D0"/>
<path d="M200.566 335.947L213.349 328.566L212.816 327.653L200.034 335.034L200.566 335.947Z" fill="#D0D0D0"/>
<path d="M445.035 231.631L445.568 230.794L432.785 223.414L432.252 224.251L445.035 231.631Z" fill="#D0D0D0"/>
<path d="M432.785 231.631L445.568 224.251L445.035 223.414L432.252 230.794L432.785 231.631Z" fill="#D0D0D0"/>
<path d="M419.241 246.544L419.774 245.631L406.991 238.251L406.459 239.164L419.241 246.544Z" fill="#D0D0D0"/>
<path d="M406.991 246.544L419.774 239.164L419.241 238.251L406.459 245.631L406.991 246.544Z" fill="#D0D0D0"/>
<path d="M393.448 261.457L393.98 260.544L381.198 253.164L380.665 254.077L393.448 261.457Z" fill="#D0D0D0"/>
<path d="M381.198 261.457L393.98 254.077L393.448 253.164L380.665 260.544L381.198 261.457Z" fill="#D0D0D0"/>
<path d="M367.654 276.37L368.11 275.457L355.328 268.077L354.871 268.99L367.654 276.37Z" fill="#D0D0D0"/>
<path d="M355.328 276.37L368.11 268.99L367.654 268.077L354.871 275.457L355.328 276.37Z" fill="#D0D0D0"/>
<path d="M341.86 291.284L342.317 290.371L329.534 282.99L329.077 283.903L341.86 291.284Z" fill="#D0D0D0"/>
<path d="M329.534 291.284L342.317 283.903L341.86 282.99L329.077 290.371L329.534 291.284Z" fill="#D0D0D0"/>
<path d="M315.991 306.121L316.523 305.284L303.741 297.903L303.208 298.74L315.991 306.121Z" fill="#D0D0D0"/>
<path d="M303.741 306.121L316.523 298.74L315.991 297.903L303.208 305.284L303.741 306.121Z" fill="#D0D0D0"/>
<path d="M290.197 321.034L290.73 320.121L277.947 312.74L277.414 313.653L290.197 321.034Z" fill="#D0D0D0"/>
<path d="M277.947 321.034L290.73 313.653L290.197 312.74L277.414 320.121L277.947 321.034Z" fill="#D0D0D0"/>
<path d="M264.404 335.947L264.936 335.034L252.154 327.653L251.621 328.566L264.404 335.947Z" fill="#D0D0D0"/>
<path d="M252.154 335.947L264.936 328.566L264.404 327.653L251.621 335.034L252.154 335.947Z" fill="#D0D0D0"/>
<path d="M238.61 350.86L239.142 349.947L226.36 342.567L225.827 343.48L238.61 350.86Z" fill="#D0D0D0"/>
<path d="M226.36 350.86L239.142 343.48L238.61 342.567L225.827 349.947L226.36 350.86Z" fill="#D0D0D0"/>
<path d="M470.829 246.544L471.361 245.631L458.579 238.251L458.046 239.164L470.829 246.544Z" fill="#D0D0D0"/>
<path d="M458.579 246.544L471.361 239.164L470.829 238.251L458.046 245.631L458.579 246.544Z" fill="#D0D0D0"/>
<path d="M445.035 261.458L445.568 260.545L432.785 253.164L432.252 254.077L445.035 261.458Z" fill="#D0D0D0"/>
<path d="M432.785 261.458L445.568 254.077L445.035 253.164L432.252 260.545L432.785 261.458Z" fill="#D0D0D0"/>
<path d="M419.241 276.371L419.774 275.458L406.991 268.077L406.459 268.99L419.241 276.371Z" fill="#D0D0D0"/>
<path d="M406.991 276.371L419.774 268.99L419.241 268.077L406.459 275.458L406.991 276.371Z" fill="#D0D0D0"/>
<path d="M393.448 291.284L393.98 290.371L381.198 282.99L380.665 283.903L393.448 291.284Z" fill="#D0D0D0"/>
<path d="M381.198 291.284L393.98 283.903L393.448 282.99L380.665 290.371L381.198 291.284Z" fill="#D0D0D0"/>
<path d="M367.654 306.121L368.111 305.284L355.328 297.903L354.871 298.74L367.654 306.121Z" fill="#D0D0D0"/>
<path d="M355.328 306.121L368.111 298.74L367.654 297.903L354.871 305.284L355.328 306.121Z" fill="#D0D0D0"/>
<path d="M341.86 321.034L342.317 320.121L329.534 312.74L329.078 313.653L341.86 321.034Z" fill="#D0D0D0"/>
<path d="M329.534 321.034L342.317 313.653L341.86 312.74L329.078 320.121L329.534 321.034Z" fill="#D0D0D0"/>
<path d="M315.991 335.947L316.524 335.034L303.741 327.654L303.208 328.567L315.991 335.947Z" fill="#D0D0D0"/>
<path d="M303.741 335.947L316.524 328.567L315.991 327.654L303.208 335.034L303.741 335.947Z" fill="#D0D0D0"/>
<path d="M290.197 350.86L290.73 349.947L277.947 342.567L277.415 343.48L290.197 350.86Z" fill="#D0D0D0"/>
<path d="M277.947 350.86L290.73 343.48L290.197 342.567L277.415 349.947L277.947 350.86Z" fill="#D0D0D0"/>
<path d="M264.404 365.697L264.937 364.86L252.154 357.48L251.621 358.317L264.404 365.697Z" fill="#D0D0D0"/>
<path d="M252.154 365.697L264.937 358.317L264.404 357.48L251.621 364.86L252.154 365.697Z" fill="#D0D0D0"/>
<path d="M355.465 36.6705L336.036 25.4297L325.073 27.7195L344.502 38.9602L355.465 36.6705Z" fill="#F4681E" fill-opacity="0.29"/>
<path d="M336.869 12.7318L317.51 1.56042L307.31 13.4951L326.669 24.7358L336.869 12.7318Z" fill="#F4681E" fill-opacity="0.29"/>
<path d="M326.669 24.7359L307.31 13.4951L301.481 14.1196L320.841 25.291L326.669 24.7359Z" fill="#F4681E" fill-opacity="0.29"/>
<path d="M317.371 14.6746L297.943 3.43384L283.163 12.0379L302.522 23.2092L317.371 14.6746Z" fill="#FAE673" fill-opacity="0.44"/>
<path d="M302.522 23.2093L283.163 12.038L279.625 26.6787L299.053 37.8501L302.522 23.2093Z" fill="#F4681E" fill-opacity="0.29"/>
<path d="M299.053 37.8501L279.625 26.6787L273.865 32.8542L293.225 44.0256L299.053 37.8501Z" fill="#FAE673" fill-opacity="0.44"/>
<path d="M293.224 44.0255L273.865 32.8542L263.596 32.646L283.024 43.8174L293.224 44.0255Z" fill="#F4681E" fill-opacity="0.29"/>
<path d="M283.024 43.8174L263.596 32.646L253.188 50.7561L272.547 61.9275L283.024 43.8174Z" fill="#FAE673" fill-opacity="0.44"/>
<path d="M272.547 61.9275L253.188 50.7561L258.461 59.4989L256.033 67.6173L275.392 78.7886L277.82 70.6703L272.547 61.9275Z" fill="#F4681E" fill-opacity="0.29"/>
<path d="M275.392 78.7887L256.033 67.6173L245.07 77.956L264.429 89.1968L275.392 78.7887Z" fill="#FAE673" fill-opacity="0.44"/>
<path d="M264.429 89.1967L245.07 77.9559C245.07 83.692 245.07 89.4049 245.07 95.0946L257.074 102.033L253.188 112.997L272.547 124.168L277.82 109.319L275.392 103.976L264.429 97.662C264.429 94.8402 264.429 92.0185 264.429 89.1967Z" fill="#F4681E" fill-opacity="0.29"/>
<path d="M299.053 117.646L279.625 106.405L283.163 117.09L302.522 128.262L299.053 117.646Z" fill="#F4681E" fill-opacity="0.29"/>
<path d="M303.355 82.8824L283.927 71.7111C285.106 72.3355 286.147 72.4743 287.465 72.2662C291.698 71.5029 295.514 67.1315 297.526 63.5233C299.33 60.1234 300.857 54.9193 299.261 51.1724C298.775 50.1316 298.151 49.4377 297.179 48.8132L316.539 59.9846C320.147 62.205 319.522 67.6866 318.412 71.0866C316.885 75.8049 312.93 81.4253 308.143 83.0906C306.686 83.5763 305.09 83.7845 303.702 83.0906L303.355 82.8824Z" fill="#F4681E" fill-opacity="0.29"/>
<path fill-rule="evenodd" clip-rule="evenodd" d="M347.347 81.009C343.877 87.0226 340.385 93.0593 336.869 99.1191L326.669 98.9109L320.841 105.017L317.371 119.727C312.422 122.549 307.472 125.394 302.522 128.262L299.053 117.646L293.224 118.201L283.025 130.205C279.509 128.169 276.016 126.157 272.547 124.168L277.82 109.319L275.392 103.976L264.429 106.266C264.429 100.576 264.429 94.8865 264.429 89.1967L275.392 78.7886L277.82 70.6703L272.547 61.9275C276.016 55.9139 279.509 49.8772 283.025 43.8174L293.224 44.0255L299.053 37.85L302.522 23.2093C307.472 20.3413 312.422 17.4964 317.371 14.6746L320.841 25.2909L326.669 24.7358L336.869 12.7318C340.339 14.7209 343.831 16.7331 347.347 18.7685L342.073 33.6174L344.502 38.9602L355.465 36.6705C355.465 42.3602 355.465 48.05 355.465 53.7398L344.502 64.0785L342.073 72.1968L347.347 81.009ZM316.539 60.054C312.931 57.9724 306.963 61.3724 303.286 67.6866C299.678 74.0009 299.678 80.8702 303.286 82.9518C306.963 85.1028 312.931 81.6335 316.539 75.3192C320.216 69.005 320.216 62.1356 316.539 60.054Z" fill="#FA9C18" fill-opacity="0.46"/>
<path fill-rule="evenodd" clip-rule="evenodd" d="M291.42 103.49C281.221 97.5926 281.221 78.4416 291.42 60.7478C301.69 43.054 318.204 33.548 328.404 39.4459C338.673 45.3438 338.673 64.4254 328.404 82.1191C318.204 99.8129 301.69 109.388 291.42 103.49ZM316.539 59.9846C312.931 57.903 306.963 61.3029 303.355 67.6172C299.678 73.9315 299.678 80.8008 303.355 82.8824C306.963 85.0334 312.931 81.6335 316.539 75.2498C320.216 68.9356 320.216 62.1356 316.539 59.9846Z" fill="#EC2A25" fill-opacity="0.29"/>
<path fill-rule="evenodd" clip-rule="evenodd" d="M295.861 63.3149C303.632 49.9232 316.191 42.6375 323.963 47.1477C331.734 51.5885 331.734 66.1598 323.963 79.5516C316.191 93.0127 303.632 100.298 295.861 95.7882C288.159 91.278 288.159 76.7761 295.861 63.3149ZM316.538 75.2496C320.216 68.9353 320.216 62.1354 316.538 59.9843C312.93 57.9027 306.963 61.3027 303.355 67.617C299.677 73.9312 299.677 80.8006 303.355 82.8822C306.963 85.0332 312.93 81.6332 316.538 75.2496Z" fill="#FAE673" fill-opacity="0.44"/>
<path opacity="0.7" fill-rule="evenodd" clip-rule="evenodd" d="M225.572 227.833C232.58 244 229.18 261.555 245.208 276.751C218.841 288.963 189.49 294.792 166.246 281.4C159.099 277.237 158.266 275.502 158.266 268.91C158.266 262.318 158.058 255.588 158.335 249.065C159.584 237.616 165.413 229.845 172.837 221.519C181.095 212.498 191.433 205.212 198.996 195.568C207.323 205.004 220.854 217.078 225.572 227.833ZM199.066 195.568L199.76 196.331C199.482 196.123 199.274 195.845 199.066 195.568ZM260.543 268.702C273.449 249.69 283.51 204.657 271.784 183.564C273.102 181.135 274.351 178.498 275.67 175.931C290.588 177.249 312.167 183.564 312.167 201.119V223.045C312.167 229.498 289.825 251.841 260.543 268.702Z" fill="url(#paint0_linear_503_460)"/>
<path opacity="0.2" d="M198.997 195.568C200.107 194.11 203.437 190.711 204.339 189.184C206.143 186.131 206.074 184.951 206.421 181.413C221.686 199.037 257.56 209.445 271.298 184.396C275.184 193.694 264.082 211.596 249.858 216.87C239.38 220.825 223.421 218.396 215.303 211.041L201.633 198.551L198.997 195.568Z" fill="url(#paint1_linear_503_460)"/>
<path opacity="0.2" d="M262.903 196.331C268.662 190.78 273.38 180.649 277.821 171.49C283.996 158.862 283.649 144.499 283.719 132.911L281.637 126.042C280.874 123.197 280.804 120.213 280.735 117.299C280.735 113.552 280.666 110.082 278.653 108.348C275.6 105.503 270.674 109.805 264.915 114.94C261.029 118.409 256.727 122.156 252.078 124.862C246.111 128.262 233.621 130.344 229.319 134.021C224.948 137.629 225.156 140.613 225.225 145.817C225.295 150.743 225.572 155.601 222.519 166.078C222.103 162.886 221.27 159.625 219.882 156.78C218.772 154.629 217.176 152.548 215.095 151.368C213.638 150.466 211.903 150.119 210.238 150.397C208.503 150.674 206.976 151.507 205.727 152.756C204.062 154.421 203.021 156.711 202.605 159.07C202.189 161.36 202.327 163.719 202.813 166.009C203.646 169.478 205.589 173.572 207.184 176.556C207.74 177.527 207.046 180.164 206.56 181.621C217.593 194.111 233.621 202.645 246.388 202.645C252.009 202.645 258.739 200.286 262.903 196.331Z" fill="url(#paint2_linear_503_460)"/>
<path opacity="0.7" d="M192.544 101.687C182.344 120.282 188.797 171.351 206.352 182.384C206.699 181.482 207.878 177.735 207.184 176.556C205.589 173.572 203.646 169.478 202.813 166.009C198.997 149.148 219.05 141.307 222.519 166.078C225.572 155.601 225.295 150.743 225.225 145.817C225.156 140.613 224.948 137.629 229.319 134.021C232.025 131.662 235.495 130.76 239.241 129.719H239.311C243.196 128.678 247.499 127.499 252.078 124.862C256.727 122.156 261.029 118.409 264.915 114.94C270.674 109.805 275.6 105.503 278.653 108.348C280.666 110.082 280.735 113.552 280.735 117.299C280.804 120.213 280.874 123.197 281.637 126.042L283.719 132.911C284.343 123.891 284.135 113.344 282.886 104.74C280.458 88.0866 272.964 87.4622 252.494 76.6377C249.164 74.903 244.931 71.9887 238.548 71.85C223.074 71.3643 200.176 89.3356 192.544 101.687Z" fill="url(#paint3_linear_503_460)"/>
<path d="M251.731 212.637C226.266 210.347 212.25 209.723 198.997 195.568C207.323 204.935 220.854 217.078 225.572 227.833C232.58 244 229.18 261.555 245.209 276.751L260.543 268.702C272.408 251.702 284.274 206.045 271.784 183.564L271.298 184.396C272.617 196.47 262.902 202.159 253.535 211.596L251.731 212.637Z" fill="url(#paint4_linear_503_460)" fill-opacity="0.4"/>
<path d="M245.208 276.751L260.543 268.702C260.266 266.481 260.196 266.065 259.988 263.914C258.67 253.159 258.323 241.571 257.004 229.984C256.935 229.498 257.49 225.127 258.115 220.547L253.535 211.596L251.731 212.637L247.915 224.294C248.886 227.555 249.857 231.025 249.788 231.718C248.47 245.249 247.082 258.641 245.694 271.477C245.486 273.42 245.417 274.669 245.208 276.751Z" fill="#FA9C18"/>
<defs>
<linearGradient id="paint0_linear_503_460" x1="196.121" y1="131.582" x2="340.938" y2="255.433" gradientUnits="userSpaceOnUse">
<stop stop-color="#FAE673"/>
<stop offset="1" stop-color="#EF183D"/>
</linearGradient>
<linearGradient id="paint1_linear_503_460" x1="217" y1="166.775" x2="264.365" y2="225.03" gradientUnits="userSpaceOnUse">
<stop stop-color="#FAE673"/>
<stop offset="1" stop-color="#EF183D"/>
</linearGradient>
<linearGradient id="paint2_linear_503_460" x1="222.4" y1="70.1203" x2="325.234" y2="125.343" gradientUnits="userSpaceOnUse">
<stop stop-color="#FAE673"/>
<stop offset="1" stop-color="#EF183D"/>
</linearGradient>
<linearGradient id="paint3_linear_503_460" x1="211.426" y1="28.507" x2="332.136" y2="94.6368" gradientUnits="userSpaceOnUse">
<stop stop-color="#FAE673"/>
<stop offset="1" stop-color="#EF183D"/>
</linearGradient>
<linearGradient id="paint4_linear_503_460" x1="199.124" y1="230.123" x2="277.044" y2="230.123" gradientUnits="userSpaceOnUse">
<stop offset="8e-08" stop-color="#FAD86A"/>
<stop offset="1" stop-color="#FDB515"/>
</linearGradient>
</defs>
</svg>
