<svg width="58" height="58" viewBox="0 0 58 58" fill="none" xmlns="http://www.w3.org/2000/svg">
<path d="M29.9062 11.125H30.1562V10.875V7.25V7H29.9062H11.7812H11.5312V7.25V10.875V11.125H11.7812H29.9062ZM31.4688 6.34375V11.7812C31.4688 11.9553 31.3996 12.1222 31.2765 12.2453C31.1535 12.3684 30.9865 12.4375 30.8125 12.4375H10.875C10.701 12.4375 10.534 12.3684 10.411 12.2453C10.2879 12.1222 10.2188 11.9553 10.2188 11.7812V6.34375C10.2188 6.1697 10.2879 6.00278 10.411 5.87971C10.534 5.75664 10.701 5.6875 10.875 5.6875H30.8125C30.9865 5.6875 31.1535 5.75664 31.2765 5.87971C31.3996 6.00278 31.4688 6.1697 31.4688 6.34375Z" fill="black" stroke="white" stroke-width="0.5"/>
<path d="M17.2188 26.5312H17.4688V26.2812V23.8854L18.7812 22.5729V27.1875C18.7812 27.3615 18.7121 27.5285 18.589 27.6515C18.466 27.7746 18.299 27.8438 18.125 27.8438H7.25C7.07595 27.8438 6.90903 27.7746 6.78596 27.6515C6.66289 27.5285 6.59375 27.3615 6.59375 27.1875V16.3125C6.59375 16.1385 6.66289 15.9715 6.78596 15.8485C6.90903 15.7254 7.07595 15.6562 7.25 15.6562H17.3021L15.9896 16.9688H8.15625H7.90625V17.2188V26.2812V26.5312H8.15625H17.2188Z" fill="black" stroke="white" stroke-width="0.5"/>
<path d="M13.7705 22.4578L20.203 16.0253L21.1309 16.9532L14.0577 24.0264C14.0577 24.0264 14.0577 24.0264 14.0577 24.0264C13.9346 24.1495 13.7677 24.2186 13.5937 24.2186C13.4197 24.2186 13.2528 24.1495 13.1298 24.0264C13.1298 24.0264 13.1298 24.0264 13.1298 24.0264L10.5878 21.4845L11.5157 20.5566L13.4169 22.4578L13.5937 22.6346L13.7705 22.4578Z" fill="black" stroke="white" stroke-width="0.5"/>
<path d="M17.2188 41.9375H17.4688V41.6875V39.2916L18.7812 37.9791V42.5938C18.7812 42.7678 18.7121 42.9347 18.589 43.0578C18.466 43.1809 18.299 43.25 18.125 43.25H7.25C7.07595 43.25 6.90903 43.1809 6.78596 43.0578C6.66289 42.9347 6.59375 42.7678 6.59375 42.5938V31.7188C6.59375 31.5447 6.66289 31.3778 6.78596 31.2547C6.90903 31.1316 7.07595 31.0625 7.25 31.0625H17.3021L15.9896 32.375H8.15625H7.90625V32.625V41.6875V41.9375H8.15625H17.2188Z" fill="black" stroke="white" stroke-width="0.5"/>
<path d="M13.7705 37.8641L20.203 31.4316L21.1309 32.3595L14.0577 39.4327C14.0577 39.4327 14.0577 39.4327 14.0577 39.4327C13.9346 39.5557 13.7677 39.6248 13.5937 39.6248C13.4197 39.6248 13.2528 39.5557 13.1298 39.4327C13.1298 39.4327 13.1298 39.4327 13.1298 39.4327L10.5878 36.8907L11.5157 35.9628L13.4169 37.8641L13.5937 38.0409L13.7705 37.8641Z" fill="black" stroke="white" stroke-width="0.5"/>
<path d="M23.8125 22H35.0938V23.3125H23.8125V22Z" fill="black" stroke="white" stroke-width="0.5"/>
<path d="M23.8125 17.4688H35.0938V18.7812H23.8125V17.4688Z" fill="black" stroke="white" stroke-width="0.5"/>
<path d="M23.8125 32.875H28.75V34.1875H23.8125V32.875Z" fill="black" stroke="white" stroke-width="0.5"/>
<path d="M23.8125 37.4062H28.75V38.7188H23.8125V37.4062Z" fill="black" stroke="white" stroke-width="0.5"/>
<path d="M3.375 54.375V54.625H3.625H36.7095C37.2788 55.0916 37.8707 55.5296 38.4832 55.9375H2.71875C2.5447 55.9375 2.37778 55.8684 2.25471 55.7453C2.13164 55.6222 2.0625 55.4553 2.0625 55.2812V2.71875C2.0625 2.5447 2.13164 2.37778 2.25471 2.25471C2.37778 2.13164 2.5447 2.0625 2.71875 2.0625H38.9688C39.1428 2.0625 39.3097 2.13164 39.4328 2.25471C39.5559 2.37778 39.625 2.5447 39.625 2.71875V22.1123C39.1913 22.2934 38.7538 22.4641 38.3125 22.6244V3.625V3.375H38.0625H3.625H3.375V3.625V54.375Z" fill="black" stroke="white" stroke-width="0.5"/>
<path d="M55.5675 26.6307C51.5599 26.1963 47.6721 25 44.1134 23.1063C43.9823 23.0365 43.836 23 43.6875 23C43.539 23 43.3927 23.0365 43.2616 23.1063C39.7029 25 35.8151 26.1963 31.8075 26.6307C31.5856 26.6551 31.3804 26.7605 31.2314 26.9267C31.0824 27.0929 31 27.3083 31 27.5316V38.2661C31.025 42.1796 32.2108 45.9977 34.4073 49.2369C36.6038 52.476 39.7121 54.9904 43.3386 56.4618C43.4491 56.5079 43.5677 56.5316 43.6875 56.5316C43.8073 56.5316 43.9259 56.5079 44.0364 56.4618C47.6629 54.9904 50.7712 52.476 52.9677 49.2369C55.1642 45.9977 56.35 42.1796 56.375 38.2661V27.5316C56.375 27.3083 56.2926 27.0929 56.1436 26.9267C55.9946 26.7605 55.7894 26.6551 55.5675 26.6307Z" fill="url(#paint0_linear_467_12466)"/>
<path d="M35.9844 37.4218L34.703 38.7032L40.1405 44.1407C40.3105 44.3106 40.5409 44.4061 40.7812 44.4061C41.0215 44.4061 41.252 44.3106 41.4219 44.1407L52.2969 33.2657L51.0155 31.9843L40.7812 42.2186L35.9844 37.4218Z" fill="white"/>
<path d="M22.9062 50.0938H28.75V51.4062H22.9062V50.0938Z" fill="black" stroke="white" stroke-width="0.5"/>
<path d="M14.75 46.4688H28.75V47.7812H14.75V46.4688Z" fill="black" stroke="white" stroke-width="0.5"/>
<defs>
<linearGradient id="paint0_linear_467_12466" x1="10.0652" y1="81.2066" x2="78.8161" y2="32.6566" gradientUnits="userSpaceOnUse">
<stop stop-color="#EC2227"/>
<stop offset="0.12" stop-color="#EC2A25"/>
<stop offset="0.31" stop-color="#EF4123"/>
<stop offset="0.54" stop-color="#F4681E"/>
<stop offset="0.81" stop-color="#FA9C18"/>
<stop offset="0.92" stop-color="#FDB515"/>
</linearGradient>
</defs>
</svg>
