<svg width="48" height="48" viewBox="0 0 48 48" fill="none" xmlns="http://www.w3.org/2000/svg">
<mask id="mask0_467_12483" style="mask-type:luminance" maskUnits="userSpaceOnUse" x="0" y="0" width="48" height="48">
<path d="M48 0H0V48H48V0Z" fill="white"/>
</mask>
<g mask="url(#mask0_467_12483)">
<mask id="mask1_467_12483" style="mask-type:luminance" maskUnits="userSpaceOnUse" x="0" y="0" width="48" height="48">
<path d="M0 3.8147e-06H48V48H0V3.8147e-06Z" fill="white"/>
</mask>
<g mask="url(#mask1_467_12483)">
<path d="M41.2208 22.8745V5.24181C41.2208 3.99859 40.213 2.99077 38.9699 2.99077H2.95415C1.71094 2.99077 0.703125 3.99859 0.703125 5.24181V35.2549C0.703125 36.4981 1.71094 37.5059 2.95415 37.5059H26.5426" stroke="black" stroke-miterlimit="10" stroke-linecap="round" stroke-linejoin="round"/>
<path d="M3.7041 6.74258H3.7116" stroke="black" stroke-miterlimit="10" stroke-linecap="round" stroke-linejoin="round"/>
<path d="M8.19922 6.74258H8.20672" stroke="black" stroke-miterlimit="10" stroke-linecap="round" stroke-linejoin="round"/>
<path d="M5.94824 6.74258H5.95574" stroke="black" stroke-miterlimit="10" stroke-linecap="round" stroke-linejoin="round"/>
<path d="M11.208 6.74258H38.2198" stroke="black" stroke-miterlimit="10" stroke-linecap="round" stroke-linejoin="round"/>
<path d="M0.703125 10.4941H41.2208" stroke="black" stroke-miterlimit="10" stroke-linecap="round" stroke-linejoin="round"/>
<path d="M23.2126 37.5058V32.2535C23.2126 31.3448 22.6662 30.5251 21.8273 30.1756L18.1335 28.6365C17.5742 28.4035 17.21 27.8571 17.21 27.2513V25.8481" stroke="black" stroke-miterlimit="10" stroke-linecap="round" stroke-linejoin="round"/>
<path d="M11.2077 25.8482V27.2514C11.2077 27.8572 10.8435 28.4036 10.2843 28.6367L6.59033 30.1758C5.75145 30.5253 5.20508 31.3449 5.20508 32.2536V37.5059" stroke="black" stroke-miterlimit="10" stroke-linecap="round" stroke-linejoin="round"/>
<path d="M11.9564 26.398C10.6116 25.6194 9.70703 24.165 9.70703 22.4994V19.498C9.70703 17.4261 11.7227 15.7464 14.209 15.7464C16.6954 15.7464 18.711 17.4261 18.711 19.498V22.4994C18.711 24.1657 17.8058 25.6205 16.4602 26.3989" stroke="black" stroke-miterlimit="10" stroke-linecap="round" stroke-linejoin="round"/>
<path d="M27.038 28.2736C27.038 28.2736 27.2614 38.8434 37.1674 45.0092C47.0735 38.8434 47.2969 28.2736 47.2969 28.2736L37.1674 24.7503L29.8832 27.284" fill="url(#paint0_linear_467_12483)"/>
<path d="M33.3135 33.8335L36.3964 36.9164L41.2409 32.0719" stroke="white" stroke-miterlimit="10" stroke-linecap="round" stroke-linejoin="round"/>
<path d="M35.9685 18.748H23.9633C23.5489 18.748 23.2129 18.412 23.2129 17.9977V15.7466C23.2129 15.3322 23.5489 14.9963 23.9633 14.9963H35.9685C36.3829 14.9963 36.7188 15.3322 36.7188 15.7466V17.9977C36.7188 18.412 36.3829 18.748 35.9685 18.748Z" stroke="black" stroke-miterlimit="10" stroke-linecap="round" stroke-linejoin="round"/>
<path d="M23.9629 21.7489H32.9668" stroke="black" stroke-miterlimit="10" stroke-linecap="round" stroke-linejoin="round"/>
<path d="M23.9629 24.7504H29.2152" stroke="black" stroke-miterlimit="10" stroke-linecap="round" stroke-linejoin="round"/>
</g>
</g>
<defs>
<linearGradient id="paint0_linear_467_12483" x1="10.3241" y1="9.84232" x2="54.2954" y2="50.8749" gradientUnits="userSpaceOnUse">
<stop stop-color="#EC2227"/>
<stop offset="0.12" stop-color="#EC2A25"/>
<stop offset="0.31" stop-color="#EF4123"/>
<stop offset="0.54" stop-color="#F4681E"/>
<stop offset="0.81" stop-color="#FA9C18"/>
<stop offset="0.92" stop-color="#FDB515"/>
</linearGradient>
</defs>
</svg>
