<svg width="100" height="78" viewBox="0 0 100 78" fill="none" xmlns="http://www.w3.org/2000/svg">
<path opacity="0.7" d="M22.5603 43.1434C31.7608 37.8428 39.2035 24.9347 39.2035 14.3062C39.2035 3.67757 31.7608 -0.63429 22.5603 4.69373C13.3599 9.9943 5.88965 22.9024 5.88965 33.531C5.88965 44.1596 13.3599 48.444 22.5603 43.1434Z" fill="url(#paint0_linear_467_12636)"/>
<path opacity="0.7" d="M16.6707 40.734C25.8711 35.4334 33.3139 22.5253 33.3139 11.8967C33.3139 1.26814 25.8711 -3.04371 16.6707 2.28431C7.47022 7.58487 0 20.493 0 31.1216C0 41.7501 7.47022 46.0345 16.6707 40.734Z" fill="url(#paint1_linear_467_12636)"/>
<path d="M30.0035 8.73088L29.5641 8.53863C27.8613 7.98935 26.6529 8.07176 24.9226 8.48372C21.5445 9.55481 19.0728 11.5871 16.7383 14.1688C13.525 17.9039 11.3554 22.0235 10.3118 26.8846C9.8174 29.686 9.70754 32.1852 10.6688 34.9041C11.273 36.3048 11.8223 37.1562 13.0582 38.0899L14.706 39.0237L15.3102 39.3808C17.5073 40.9188 19.1277 41.7427 24.2086 38.804C29.2894 35.8654 36.2103 23.891 36.2103 18.0412C36.2103 12.1639 34.6724 11.1477 32.2281 10.0217L30.0035 8.73088Z" fill="url(#paint2_linear_467_12636)" fill-opacity="0.4"/>
<path d="M40.5769 71.9257L30.2505 63.7414L17.0402 38.7217C15.5847 37.6231 14.953 36.4421 14.4586 34.6844C13.6622 31.1691 14.2938 27.8733 15.4748 24.5227C16.6557 21.5017 18.029 19.1123 20.0613 16.5856C28.2181 7.02815 46.4268 10.2689 56.7807 13.5371C58.5384 14.0864 59.8292 15.2124 60.5982 16.8877L63.0151 22.1059C63.6193 23.4242 63.784 24.715 63.4545 26.1156L61.4496 35.2886L72.5176 60.5281L60.9003 66.9822C61.1475 67.7512 58.3462 71.0468 55.2153 70.168C54.7758 70.8271 55.0505 72.3102 51.5351 72.2003C51.6999 72.8595 50.821 73.4911 49.2556 73.4911L41.9227 72.5024C41.4009 72.42 40.9889 72.2553 40.5769 71.9257Z" fill="url(#paint3_linear_467_12636)" fill-opacity="0.4"/>
<path opacity="0.7" d="M70.6228 61.352L64.0314 56.1887L59.0055 48.3889L54.6112 43.9672C52.469 41.825 51.3705 39.2709 51.2606 36.2498L51.0409 30.7021L41.5109 29.7683L37.7483 34.2724C36.7321 35.5083 35.1941 36.1674 33.6561 35.7006L30.1133 34.602C29.7837 34.4921 29.5365 34.2724 29.3992 33.9429C29.2894 33.6133 29.3168 33.2563 29.5091 32.9542L36.9244 21.2819C37.4462 20.458 38.2426 19.7989 39.2039 19.6341L55.0506 17.1898C55.4077 17.1349 55.7098 17.2997 55.9844 17.5468L65.5419 25.9783C73.8635 33.3112 69.9087 33.1739 78.2028 35.1513C80.7021 35.7555 82.0478 36.3872 85.7829 37.8428C91.6053 49.3502 82.8992 57.7816 74.3579 60.4457C74.3579 60.4457 71.3643 61.6541 70.6228 61.352Z" fill="url(#paint4_linear_467_12636)"/>
<path opacity="0.7" d="M83.366 75.7158C92.5665 70.4152 100.009 57.5071 100.009 46.8785C100.009 36.2774 92.5665 31.9655 83.366 37.2661C74.1656 42.5667 66.6954 55.5022 66.6954 66.1034C66.6954 76.7319 74.1656 81.0438 83.366 75.7158Z" fill="url(#paint5_linear_467_12636)"/>
<path opacity="0.7" d="M78.7398 73.3991C87.9402 68.0986 95.383 55.1905 95.383 44.5619C95.383 33.9607 87.9402 29.6489 78.7398 34.9495C69.5393 40.25 62.0691 53.1856 62.0691 63.7867C62.0691 74.4153 69.5393 78.7271 78.7398 73.3991Z" fill="url(#paint6_linear_467_12636)"/>
<path opacity="0.7" d="M34.3703 66.8447L29.5091 66.7074C28.7676 66.6799 28.1359 66.4328 27.5866 65.9384L26.8176 65.2518C26.1585 64.6476 25.8289 63.9061 25.8289 62.9998V61.1047L25.417 60.9949C24.7853 60.8301 24.2909 60.5005 23.879 59.9787L22.5332 58.3309C22.0938 57.7816 21.8741 57.2049 21.8466 56.5457L21.7917 55.2L21.2974 55.0352C20.5558 54.7605 20.0065 54.3211 19.5946 53.6345L18.7432 52.2064C18.1665 51.2726 17.9467 50.3114 18.0017 49.2128L18.0291 48.6086C16.1891 47.7023 14.8158 45.9446 14.8982 43.6102L14.9257 42.1271L15.0905 39.0236C15.2827 37.2934 15.8869 36.9364 17.2876 36.8265C17.9467 36.7716 18.6608 36.8265 19.2376 37.1012L20.0065 37.4582C20.6932 37.7603 21.0502 38.1173 21.5445 38.7765C21.9565 39.3257 22.1762 39.9025 22.2311 40.5891L22.2586 41.056L22.2861 42.5665L23.1924 42.9785L24.2086 43.8573C25.0325 44.5988 25.4444 45.5601 25.417 46.6587L25.3346 49.46C25.774 49.6797 26.1585 49.872 26.5705 50.2015L27.5866 50.998C28.438 51.6846 28.9598 53.0303 28.9324 54.0739L28.795 57.5619C29.976 57.6168 30.4978 58.0288 31.5689 58.8802C32.283 59.4661 32.7041 60.2167 32.8323 61.1322L33.2717 64.0434L34.3703 66.8447Z" fill="url(#paint7_linear_467_12636)"/>
<path d="M15.7219 38.749L17.8366 40.3694L17.5894 44.0221C17.5894 44.1045 17.4796 44.132 17.3697 44.132C17.2873 44.1594 17.1226 43.9672 17.0402 43.9123L16.1888 43.0334C15.9141 42.7862 15.612 42.4567 15.6395 42.0997L15.7219 38.749Z" fill="white"/>
<path d="M18.6613 44.3792L21.0781 45.9995V49.1304C21.0781 49.2037 21.0506 49.2678 20.9957 49.3227C20.9408 49.3776 20.8767 49.4051 20.8034 49.4051H20.5013C20.007 49.4051 19.595 49.2128 19.2655 48.8558L19.0457 48.5812C18.7711 48.2699 18.6338 47.9037 18.6338 47.4826L18.6613 44.3792Z" fill="white"/>
<path d="M22.7256 51.1904L25.1699 53.0305V55.9417C25.1699 56.0241 25.115 56.079 25.0875 56.134C25.0326 56.1889 24.9593 56.2163 24.8678 56.2163H24.5657C24.0988 56.2163 23.6594 56.0241 23.3573 55.6396L23.1101 55.3924C22.8354 55.0903 22.7256 54.7333 22.7256 54.2938V51.1904Z" fill="white"/>
<path d="M26.7627 59.0723L29.1795 60.83L28.9873 63.3292C28.9598 63.494 28.85 63.6038 28.7126 63.5764H28.3831C27.8887 63.5764 27.4768 63.3841 27.1472 63.0271V62.9996C26.8725 62.6975 26.7627 61.8461 26.7627 61.4342V59.0723Z" fill="white"/>
<path d="M22.2857 42.5667C21.7914 42.6216 21.3794 42.6765 21.0498 42.7589C20.2259 42.9237 19.2098 43.2258 18.6879 43.9124C18.1936 44.5716 18.1112 47.6475 18.0288 48.6088C17.9464 44.5166 17.15 42.3195 22.2857 42.5667Z" fill="#BDEDF8"/>
<path d="M32.3099 28.2303L34.2324 28.45C34.4155 28.4683 34.5528 28.5507 34.6443 28.6972C35.2211 29.631 31.6233 33.2287 30.9916 33.9703L28.6297 33.5034C29.4262 31.6908 30.3325 29.988 31.7881 28.4774C31.9254 28.3127 32.0902 28.2028 32.3099 28.2303Z" fill="white"/>
<path d="M25.334 49.46C24.208 49.5699 22.8073 49.9269 22.313 50.9156C21.9834 51.6022 21.901 54.2937 21.7912 55.2C21.6813 52.2614 20.8849 49.2403 25.334 49.46Z" fill="#BDEDF8"/>
<path d="M28.7396 57.5894C26.0206 57.7542 25.9932 58.9077 25.8284 61.2147C25.7735 58.3859 25.4988 57.4521 28.7396 57.5894Z" fill="#BDEDF8"/>
<path d="M40.6869 27.4612C40.9066 28.0654 41.7031 29.5759 40.577 30.9216C41.4284 30.0153 42.1974 29.9055 43.1312 29.9329C41.703 29.5484 41.2636 28.3126 40.6869 27.4612Z" fill="#BDEDF8"/>
<path d="M53.3478 29.4937C52.3866 30.0155 52.0296 30.3725 49.5303 30.5648C51.5627 30.757 50.9035 31.4436 51.1232 32.652C51.1782 30.7295 52.3317 30.4 53.3478 29.4937Z" fill="#BDEDF8"/>
<defs>
<linearGradient id="paint0_linear_467_12636" x1="14.0961" y1="-14.4491" x2="57.9536" y2="6.89917" gradientUnits="userSpaceOnUse">
<stop stop-color="#FAE673"/>
<stop offset="1" stop-color="#EF183D"/>
</linearGradient>
<linearGradient id="paint1_linear_467_12636" x1="8.20642" y1="-16.8585" x2="52.0639" y2="4.48975" gradientUnits="userSpaceOnUse">
<stop stop-color="#FAE673"/>
<stop offset="1" stop-color="#EF183D"/>
</linearGradient>
<linearGradient id="paint2_linear_467_12636" x1="9.98337" y1="24.4496" x2="36.1892" y2="24.4496" gradientUnits="userSpaceOnUse">
<stop offset="8e-08" stop-color="#FAD86A"/>
<stop offset="1" stop-color="#FDB515"/>
</linearGradient>
<linearGradient id="paint3_linear_467_12636" x1="14.1989" y1="41.8481" x2="72.4705" y2="41.8481" gradientUnits="userSpaceOnUse">
<stop offset="8e-08" stop-color="#FAD86A"/>
<stop offset="1" stop-color="#FDB515"/>
</linearGradient>
<linearGradient id="paint4_linear_467_12636" x1="43.706" y1="-0.155604" x2="100.011" y2="46.5214" gradientUnits="userSpaceOnUse">
<stop stop-color="#FAE673"/>
<stop offset="1" stop-color="#EF183D"/>
</linearGradient>
<linearGradient id="paint5_linear_467_12636" x1="74.9018" y1="18.1422" x2="118.757" y2="39.492" gradientUnits="userSpaceOnUse">
<stop stop-color="#FAE673"/>
<stop offset="1" stop-color="#EF183D"/>
</linearGradient>
<linearGradient id="paint6_linear_467_12636" x1="70.2755" y1="15.8256" x2="114.131" y2="37.1753" gradientUnits="userSpaceOnUse">
<stop stop-color="#FAE673"/>
<stop offset="1" stop-color="#EF183D"/>
</linearGradient>
<linearGradient id="paint7_linear_467_12636" x1="19.6922" y1="25.0327" x2="46.8916" y2="36.1145" gradientUnits="userSpaceOnUse">
<stop stop-color="#FAE673"/>
<stop offset="1" stop-color="#EF183D"/>
</linearGradient>
</defs>
</svg>
